<svg width="12" height="8" viewBox="0 0 12 8" fill="none" xmlns="http://www.w3.org/2000/svg">
<path d="M1.406 0.578003L6 5.172L10.594 0.578003L12 1.984L6 7.984L0 1.984L1.406 0.578003Z" fill="white"/>
</svg>
